<?xml version="1.0" encoding="UTF-8"?>
<svg xmlns="http://www.w3.org/2000/svg" width="500" height="500">
	<defs>
		<radialGradient id="thaLight" cx="50%" cy="50%" r="50%" fx="50%" fy="50%">
			<stop offset="0%"   style="stop-color:rgb(255,255,0);stop-opacity:1"/>
			<stop offset="100%" style="stop-color:rgb(255,255,0);stop-opacity:0"/>
		</radialGradient>
		<linearGradient id="thaRedBlueLight" x1="0%" y1="0%" x2="100%" y2="0%">
			<stop offset="0%"   style="stop-color:rgb(255,0,0);stop-opacity:1"/>
			<stop offset="100%" style="stop-color:rgb(0,0,255);stop-opacity:1"/>
		</linearGradient>
	</defs>
	<rect width="500" height="500" x="0" y="0" rx="50" fill="url(#thaRedBlueLight)"/>
	<ellipse cx="250" cy="250" rx="250" ry="250" fill="url(#thaLight)"/>
	<polygon points="20,440 60,480 300,240 200,200" style="fill: grey;stroke:black;stroke-width:1"/>
	<ellipse cx="250" cy="220" rx="70" ry="70" style="fill: black;stroke: black;stroke-width:1"/>
</svg>

